Size, Run1, Run2, Run3, Run4, Run5, Run6, Run7, Run8, Run9, Run10, Run11, Run12, Run13, Run14, Run15
1000, 252083, 243748, 248288, 255199, 246681, 258698, 252698, 243897, 256279, 249700, 249432, 251344, 241979, 249671, 255051
1500, 566985, 558868, 561702, 573411, 559223, 566236, 559375, 579747, 547680, 566623, 550661, 571468, 552466, 571853, 568824
2000, 1005988, 984932, 998860, 1016402, 1006627, 953350, 996086, 1002835, 979336, 1007262, 999891, 1012438, 999434, 980330, 996728
2500, 1558153, 1583522, 1552194, 1547340, 1586809, 1554350, 1538454, 1609276, 1585391, 1565284, 1559780, 1530102, 1571479, 1536717, 1559587
3000, 2250115, 2316312, 2234369, 2242949, 2228533, 2245451, 2256363, 2213121, 2212408, 2267188, 2279777, 2309368, 2256825, 2246816, 2198233
3500, 3027355, 3111772, 3114513, 3108462, 3042702, 3093970, 3071755, 3064863, 3091478, 3081381, 3103316, 3034623, 3068590, 3128097, 3075574
4000, 4014112, 3992245, 4011141, 3986747, 4005133, 3997492, 4051801, 4020238, 4073158, 3991745, 4061692, 4049439, 3959371, 4005587, 4054371
4500, 5082245, 5090016, 5092290, 5067667, 5121904, 5167353, 5035231, 4985697, 5062401, 5069099, 5037376, 5055024, 5203451, 5086196, 5051386
5000, 6221892, 6215481, 6280328, 6313836, 6194820, 6301862, 6318749, 6324169, 6214194, 6255126, 6177949, 6236855, 6170312, 6257979, 6213690
5500, 7500207, 7591738, 7514434, 7424604, 7635808, 7549509, 7611107, 7513775, 7621083, 7709841, 7642886, 7561257, 7541164, 7552542, 7602078
6000, 8983484, 9095542, 8988191, 8941869, 9053073, 8925400, 9138513, 9163901, 9018989, 8884043, 9013693, 8999875, 9146957, 8867205, 9126169
6500, 10523398, 10553776, 10491063, 10537618, 10588579, 10542679, 10439425, 10330684, 10538718, 10545999, 10630018, 10448436, 10768536, 10586912, 10428326
7000, 12277882, 12341523, 12292993, 12390131, 12261521, 12142849, 12225967, 12080694, 12465972, 12248713, 12239573, 12224717, 12262992, 12264997, 12062698
7500, 14174282, 13982243, 14076274, 14092482, 6844557, 14026897, 14087364, 14057866, 14170042, 14009878, 13961631, 14116998, 14043121, 14200988, 13895593
